\citation{cormen}
\citation{stinson}
\citation{sec_two_party}
\citation{cormen}
\citation{mpcgoeslive}
\citation{oblivdata}
\citation{circuitORAM}
\citation{scoram}
\citation{goldrich}
\citation{oblivistore}
\citation{burstoram}
\citation{goldrich}
\citation{2server}
\citation{burstoram}
\citation{oblivistore}
\citation{treeORAM}
\citation{pathOram}
\citation{simpleOram}
\citation{goldrich}
\citation{scoram}
\citation{circuitORAM}
\citation{oblivdata}
\citation{seccompsublinear}
\citation{goldrich}
\citation{oblivdata}
\citation{circuitORAM}
\citation{onionORAM}
\citation{burstoram}
\citation{oblivistore}
\citation{Dogoram}
\citation{2server}
\citation{3server}
\citation{goldrich}
\citation{randomencryption}
\citation{goldrich}
\citation{goldrich}
\citation{goldrich}
\citation{pathOram}
\citation{goldrich}
\citation{goldrich}
\citation{goldrich}
\citation{goldrich}
\citation{goldrich}
\citation{goldrich}
\citation{kryptoproto}
\citation{onionORAM}
\citation{seccompsublinear}
\citation{seccompsublinear}
\citation{seccompsublinear}
\citation{goldrich}
\citation{lower_bound_revisited}
\citation{goldrich}
\citation{burstoram}
\citation{oblivdata}
\citation{circuitORAM}
\citation{argeIO}
\citation{pathOram}
\citation{pathOram}
\citation{onionORAM}
\citation{uncondOram}
\citation{uncondOram}
\citation{scoram}
\citation{pathOram}
\citation{3server}
\citation{oblivistore}
\citation{pathOram}
\citation{scoram}
\citation{burstoram}
\citation{onionORAM}
\citation{scoram}
\citation{circuitORAM}
\citation{goldrich}
\citation{treeORAM}
\citation{pathOram}
\citation{scoram}
\citation{circuitORAM}
\citation{oblivdata}
\citation{pathOram}
\citation{pathOram}
\citation{pathOram}
\citation{pathOram}
\citation{scoram}
\citation{oblivdata}
\citation{circuitORAM}
\citation{pathOram}
\citation{treeORAM}
\citation{Ostrovsky}
\citation{2server}
\citation{2server}
\citation{scoram}
\citation{scoram}
\citation{circuitORAM}
\citation{randomfunctions}
\citation{2server}
\citation{goldrich}
\citation{goldrich}
\citation{2server}
\citation{hashingoramfixed}
\citation{hashingoramfixed}
\citation{2server}
\citation{randomfunctions}
\citation{2server}
\citation{2server}
\citation{2server}
\citation{goldrich}
\citation{2server}
\citation{2server}
\citation{2server}
\citation{3server}
\citation{burstoram}
\citation{oblivdata}
\citation{scoram}
\citation{circuitORAM}
\citation{stinson}
\citation{goldrich}
\citation{2server}
\citation{goldrich}
\citation{3server}
\citation{2server}
\citation{oblivistore}
\citation{burstoram}
\citation{onionORAM}
\citation{Dogoram}
\citation{goldrich}
\citation{lower_bound_revisited}
\citation{lower_bound_revisited}
\citation{stateless}
\citation{scoram}
\citation{hashingoramfixed}
\citation{hashingoramfixed}
\citation{stateless}
\citation{onionORAM}
\citation{sssoram}
\citation{sssoram}
\citation{oblivistore}
\citation{sssoram}
\citation{sssoram}
\citation{oblivistore}
\citation{multicloud}
\citation{3server}
\citation{sec_two_party}
\citation{3server}
\citation{lower_bound_revisited}
\citation{vos}
\citation{Gentry}
\citation{vos}
\citation{gentryFHE}
\citation{onionORAM}
\citation{onionORAM}
\citation{bedoza}
\citation{Gentry}
\citation{onionORAM}
\citation{onionORAM}
\citation{burstoram}
\citation{mpcbook}
\citation{mpcfeas}
\citation{toft}
\citation{mpcbook}
\citation{mpcfeas}
\citation{toft}
\citation{mpcbook}
\citation{mpcgoeslive}
\citation{claudio}
\citation{2server}
\citation{digitalcircuits}
\citation{scoram}
\citation{tmtocircuit}
\citation{2server}
\citation{ramseccomp}
\citation{mpcbook}
\citation{mpcbook}
\citation{mpcbook}
\citation{mpcfeas}
\citation{toft}
\citation{mpcbook}
\citation{toft}
\citation{toft}
\citation{toft}
\citation{mpcbook}
\citation{toft}
\citation{mpccompleteness}
\citation{mpcbook}
\citation{mpcfeas}
\citation{oblivdata}
\citation{fabb}
\citation{toft}
\citation{jesperphd}
\citation{toft}
\citation{fabb}
\citation{toft}
\citation{oblivdata}
\citation{oblivdata}
\citation{origgordon}
\citation{mpcfeas}
\citation{claudio}
\citation{sec_two_party}
\citation{jesperphd}
\citation{bedoza}
\citation{spdz}
\citation{garble}
\citation{claudio}
\citation{booleanmpc}
\citation{spdz}
\citation{booleanmpc}
\citation{scoram}
\citation{ramseccomp}
\citation{oblivdata}
\citation{oblivdata}
\citation{uncondOram}
\citation{seccompsublinear}
\citation{private_inf_storage}
\citation{private_inf_storage}
\citation{private_inf_storage}
\citation{2server}
\citation{seccompsublinear}
\citation{seccompsublinear}
\citation{seccompsublinear}
\citation{seccompsublinear}
\citation{seccompsublinear}
\citation{auto_ram_circuit}
\citation{uncondOram}
\citation{oblivdata}
\citation{toft}
\citation{oblivdata}
\citation{toft}
\citation{scoram}
\citation{circuitORAM}
\citation{seccompsublinear}
\citation{circuitORAM}
\citation{circuitORAM}
\citation{circuitORAM}
\citation{oblivdata}
\citation{onionORAM}
\citation{onionORAM}
\citation{goldrich}
\citation{scoram}
\citation{circuitORAM}
\citation{3server}
\citation{3server}
\citation{3server}
\citation{sssoram}
\citation{3server}
\citation{oblivdata}
\citation{oblivdata}
\citation{uncondOram}
\citation{oblivdata}
\citation{oblivdata}
\citation{oblivdata}
\citation{scoram}
\citation{2server}
\citation{oblivdata}
\citation{oblivdata}
\citation{oblivdata}
\citation{oblivdata}
\citation{oblivdata}
\citation{oblivdata}
\citation{pathOram}
\citation{pathOram}
\citation{oblivdata}
\citation{pathOram}
\citation{spdz}
\citation{oblivdata}
\citation{circuitORAM}
\citation{scoram}
\citation{treeORAM}
\citation{circuitORAM}
\citation{oblivdata}
\citation{treeORAM}
\citation{spdz}
\citation{scoram}
\citation{garble}
\citation{private_inf_storage}
\citation{2server}
\citation{2server}
\citation{2server}
\citation{3server}
\citation{toft}
\citation{2server}
\citation{2server}
\citation{2server}
\citation{seccompsublinear}
\citation{2server}
\citation{2server}
\citation{circuitORAM}
\citation{circuitORAM}
\citation{3server}
\citation{seccompsublinear}
\citation{lecturenotes}
\citation{circuitORAM}
\citation{seccompsublinear}
\citation{onionORAM}
\citation{oblivdata}
\citation{3server}
\citation{2server}
\citation{origgordon}
\citation{2server}
\citation{Naor:2004:NCE:972639.972643}
\citation{randomfunctions}
\citation{randomfunctions}
\citation{randomfunctions}
\citation{argeIO}
\citation{Naor:2004:NCE:972639.972643}
\citation{Naor:2004:NCE:972639.972643}
\citation{naturalproofs}
\citation{weakprf}
\citation{origgordon}
\citation{origgordon}
\citation{origgordon}
\citation{origgordon}
\citation{origgordon}
\citation{origgordon}
\citation{origgordon}
\citation{Freedman2005}
\citation{Freedman2005}
\citation{circuitORAM}
\citation{2server}
\citation{foundationsofcrypto}
\citation{3server}
\citation{oblivdata}
\citation{uncondOram}
\citation{weakprf}
\citation{private_inf_storage}
\citation{weakprf}
\citation{seccompsublinear}
\citation{treeORAM}
\citation{foundationsofcrypto}
\citation{treeORAM}
\citation{treeORAM}
\citation{seccompsublinear}
\citation{onionORAM}
\citation{scoram}
\citation{circuitORAM}
\citation{pathOram}
\citation{scoram}
\citation{scoram}
\citation{scoram}
\citation{scoram}
\citation{seccompsublinear}
\citation{scoram}
\citation{oblivdata}
\citation{scoram}
\citation{scoram}
\citation{circuitORAM}
\citation{circuitORAM}
\citation{circuitORAM}
\citation{circuitORAM}
\citation{circuitORAM}
\citation{3server}
\citation{mpccompleteness}
\citation{mpcuncond}
\citation{3server}
\citation{treeORAM}
\citation{3server}
\citation{circuitORAM}
\citation{seccompsublinear}
\citation{Gentry2013}
\citation{3server}
\citation{3server}
\citation{treeORAM}
\citation{circuitORAM}
\citation{scoram}
\citation{3server}
\citation{3server}
\citation{circuitORAM}
\citation{3server}
\citation{scoram}
\citation{3server}
\citation{3server}
\citation{oblivdata}
\citation{3server}
\citation{oblivdata}
\citation{oblivdata}
\citation{scoram}
\citation{scoram}
\citation{circuitORAM}
\citation{3server}
\citation{origgordon}
\citation{ramseccomp}
\citation{goldrich}
\citation{vos}
\citation{multicloud}
\citation{onionORAM}
\citation{3server}
\citation{naturalproofs}
\citation{circuitORAM}
\citation{onionORAM}
\citation{onionORAM}
\citation{lower_bound_revisited}
\citation{onionORAM}
\bibstyle{plain}
\bibdata{bibliography}
\bibcite{vos}{A1}
\bibcite{argeIO}{A2}
\bibcite{garble}{A3}
\bibcite{mpccompleteness}{A4}
\bibcite{bedoza}{A5}
\bibcite{mpcgoeslive}{A6}
\bibcite{lower_bound_revisited}{A7}
\bibcite{mpcuncond}{A8}
\bibcite{simpleOram}{A9}
\bibcite{cormen}{A10}
\bibcite{uncondOram}{A11}
\bibcite{fabb}{A12}
\bibcite{spdz}{A13}
\bibcite{kryptoproto}{A14}
\bibcite{booleanmpc}{A15}
\bibcite{burstoram}{A16}
\bibcite{onionORAM}{A17}
\bibcite{3server}{A18}
\bibcite{Freedman2005}{A19}
\bibcite{Gentry}{A20}
\bibcite{Gentry2013}{A21}
\bibcite{gentryFHE}{A22}
\bibcite{foundationsofcrypto}{A23}
\bibcite{randomfunctions}{A24}
\bibcite{goldrich}{A25}
\bibcite{randomencryption}{A26}
\bibcite{stateless}{A27}
\bibcite{origgordon}{A28}
\bibcite{seccompsublinear}{A29}
\bibcite{sec_two_party}{A30}
\bibcite{oblivdata}{A31}
\bibcite{digitalcircuits}{A32}
\bibcite{hashingoramfixed}{A33}
\bibcite{mpcfeas}{A34}
\bibcite{ramseccomp}{A35}
\bibcite{auto_ram_circuit}{A36}
\bibcite{2server}{A37}
\bibcite{Naor:2004:NCE:972639.972643}{A38}
\bibcite{jesperphd}{A39}
\bibcite{claudio}{A40}
\bibcite{Ostrovsky}{A41}
\bibcite{lecturenotes}{A42}
\bibcite{tmtocircuit}{A43}
\bibcite{Dogoram}{A44}
\bibcite{naturalproofs}{A45}
\bibcite{mpcbook}{A46}
\bibcite{treeORAM}{A47}
\bibcite{private_inf_storage}{A48}
\bibcite{multicloud}{A49}
\bibcite{oblivistore}{A50}
\bibcite{sssoram}{A51}
\bibcite{pathOram}{A52}
\bibcite{stinson}{A53}
\bibcite{toft}{A54}
\bibcite{circuitORAM}{A55}
\bibcite{scoram}{A56}
\bibcite{weakprf}{A57}
\citation{pathOram}
\citation{oblivdata}
\citation{oblivdata}
\citation{oblivdata}
\citation{oblivdata}
\citation{oblivdata}
\citation{oblivdata}
\citation{origgordon}
\citation{scoram}
\citation{circuitORAM}
