\relax 
\select@language{american}
\@writefile{toc}{\select@language{american}}
\@writefile{lof}{\select@language{american}}
\@writefile{lot}{\select@language{american}}
\@writefile{toc}{\contentsline {chapter}{Abstract}{iii}}
\@writefile{toc}{\contentsline {chapter}{Acknowledgments}{v}}
\@writefile{toc}{\contentsline {chapter}{Notation and Assumptions on the Reader}{1}}
\@writefile{toc}{\contentsline {chapter}{\numberline {1}Introduction}{3}}
\@writefile{lof}{\addvspace {10\p@ }}
\@writefile{lot}{\addvspace {10\p@ }}
\newlabel{ch:intro}{{1}{3}}
\@writefile{toc}{\contentsline {section}{\numberline {1.1}A Map to the Thesis}{5}}
\@writefile{toc}{\contentsline {chapter}{\numberline {2}Background \& Related Work}{7}}
\@writefile{lof}{\addvspace {10\p@ }}
\@writefile{lot}{\addvspace {10\p@ }}
\newlabel{relatedwork}{{2}{7}}
\@writefile{toc}{\contentsline {chapter}{\numberline {3}Oblivious RAM}{11}}
\@writefile{lof}{\addvspace {10\p@ }}
\@writefile{lot}{\addvspace {10\p@ }}
\@writefile{toc}{\contentsline {section}{\numberline {3.1}Intuition}{11}}
\newlabel{oramintu}{{3.1}{11}}
\@writefile{toc}{\contentsline {section}{\numberline {3.2}Definition}{13}}
\newlabel{ITM}{{3.2}{13}}
\@writefile{toc}{\contentsline {subsection}{\numberline {3.2.1}RAM, CPU and Memory}{13}}
\@writefile{toc}{\contentsline {subsection}{\numberline {3.2.2}Access Pattern}{15}}
\newlabel{access}{{3.2.2}{15}}
\@writefile{toc}{\contentsline {subsection}{\numberline {3.2.3}Oblivious RAM}{16}}
\@writefile{toc}{\contentsline {subsection}{\numberline {3.2.4}Simulation}{16}}
\newlabel{oramsim}{{3.2.4}{16}}
\@writefile{toc}{\contentsline {subsection}{\numberline {3.2.5}Negligible}{18}}
\@writefile{toc}{\contentsline {subsection}{\numberline {3.2.6}Security}{18}}
\newlabel{oramsec}{{3.2.6}{18}}
\@writefile{toc}{\contentsline {subsection}{\numberline {3.2.7}Adversarial Model}{19}}
\@writefile{toc}{\contentsline {subsection}{\numberline {3.2.8}Security Through Experiment}{19}}
\newlabel{oramsecexp}{{3.2.8}{19}}
\@writefile{toc}{\contentsline {subsection}{\numberline {3.2.9}Lower Bound}{20}}
\newlabel{lowerbound}{{3.2.9}{20}}
\@writefile{toc}{\contentsline {subsection}{\numberline {3.2.10}Simulation Overhead}{21}}
\@writefile{toc}{\contentsline {section}{\numberline {3.3}Metrics for ORAM}{21}}
\newlabel{orammetrics}{{3.3}{21}}
\@writefile{toc}{\contentsline {subsection}{\numberline {3.3.1}Bandwidth Overhead}{22}}
\@writefile{toc}{\contentsline {subsection}{\numberline {3.3.2}Block size}{22}}
\@writefile{toc}{\contentsline {subsection}{\numberline {3.3.3}Access Complexity}{22}}
\@writefile{toc}{\contentsline {subsection}{\numberline {3.3.4}Client Storage}{23}}
\@writefile{toc}{\contentsline {subsection}{\numberline {3.3.5}Client and Server Computation}{24}}
\@writefile{toc}{\contentsline {section}{\numberline {3.4}A Tree-Based ORAM Scheme - Path ORAM}{24}}
\newlabel{pathoram}{{3.4}{24}}
\@writefile{toc}{\contentsline {subsection}{\numberline {3.4.1}Intuition}{25}}
\@writefile{toc}{\contentsline {subsection}{\numberline {3.4.2}Server}{25}}
\@writefile{toc}{\contentsline {subsection}{\numberline {3.4.3}Client}{26}}
\@writefile{toc}{\contentsline {subsection}{\numberline {3.4.4}Access}{26}}
\@writefile{toc}{\contentsline {subsection}{\numberline {3.4.5}Eviction}{27}}
\@writefile{toc}{\contentsline {subsection}{\numberline {3.4.6}Security}{28}}
\@writefile{toc}{\contentsline {subsection}{\numberline {3.4.7}Recursion}{29}}
\newlabel{pathrecursion}{{3.4.7}{29}}
\@writefile{toc}{\contentsline {subsection}{\numberline {3.4.8}Bandwidth Overhead}{30}}
\@writefile{toc}{\contentsline {subsection}{\numberline {3.4.9}Client And Server Computation}{31}}
\@writefile{toc}{\contentsline {subsection}{\numberline {3.4.10}Recap}{31}}
\@writefile{toc}{\contentsline {section}{\numberline {3.5}A Hierarchical ORAM Scheme - Distributed ORAM}{32}}
\newlabel{distoram}{{3.5}{32}}
\@writefile{toc}{\contentsline {subsection}{\numberline {3.5.1}Intuition}{32}}
\citation{2server}
\@writefile{toc}{\contentsline {subsection}{\numberline {3.5.2}Tagging \& Hashing}{33}}
\newlabel{tagandhash}{{3.5.2}{33}}
\@writefile{toc}{\contentsline {subsection}{\numberline {3.5.3}Servers}{34}}
\@writefile{toc}{\contentsline {subsection}{\numberline {3.5.4}Client}{36}}
\@writefile{toc}{\contentsline {subsection}{\numberline {3.5.5}Access}{36}}
\newlabel{2serveraccess}{{3.5.5}{36}}
\@writefile{toc}{\contentsline {subsection}{\numberline {3.5.6}Reshuffling}{38}}
\newlabel{2serverreshuffle}{{3.5.6}{38}}
\@writefile{toc}{\contentsline {subsection}{\numberline {3.5.7}Security}{39}}
\newlabel{2serversec}{{3.5.7}{39}}
\@writefile{toc}{\contentsline {subsubsection}{Reshuffling}{40}}
\@writefile{toc}{\contentsline {subsubsection}{Access}{40}}
\@writefile{toc}{\contentsline {subsubsection}{Conclusion}{41}}
\newlabel{2serversecconclusion}{{3.5.7}{41}}
\@writefile{toc}{\contentsline {subsection}{\numberline {3.5.8}Access Overhead}{42}}
\newlabel{2serveroverhead}{{3.5.8}{42}}
\@writefile{toc}{\contentsline {subsection}{\numberline {3.5.9}Client and Server Computation}{42}}
\@writefile{toc}{\contentsline {subsection}{\numberline {3.5.10}Comparison to Path ORAM}{43}}
\@writefile{toc}{\contentsline {section}{\numberline {3.6}Tamper Resistance}{44}}
\newlabel{tamperproof}{{3.6}{44}}
\@writefile{toc}{\contentsline {section}{\numberline {3.7}Lower Bound Revisited}{46}}
\newlabel{lowerboundrevisited}{{3.7}{46}}
\@writefile{toc}{\contentsline {subsection}{\numberline {3.7.1}Assumptions and Restrictions}{46}}
\@writefile{toc}{\contentsline {subsection}{\numberline {3.7.2}Altering the model}{47}}
\@writefile{toc}{\contentsline {subsubsection}{Multiple servers}{48}}
\newlabel{multipleservers}{{3.7.2}{48}}
\@writefile{toc}{\contentsline {subsubsection}{Server Computation}{50}}
\newlabel{constantbandwidth}{{3.7.2}{50}}
\@writefile{toc}{\contentsline {chapter}{\numberline {4}Multi Party Computation}{53}}
\@writefile{lof}{\addvspace {10\p@ }}
\@writefile{lot}{\addvspace {10\p@ }}
\newlabel{chap:mpc}{{4}{53}}
\@writefile{toc}{\contentsline {section}{\numberline {4.1}Intuition}{53}}
\@writefile{toc}{\contentsline {section}{\numberline {4.2}Computational Model}{54}}
\newlabel{circuit model}{{4.2}{54}}
\@writefile{toc}{\contentsline {section}{\numberline {4.3}Secret Sharing}{55}}
\newlabel{secretsharing}{{4.3}{55}}
\@writefile{toc}{\contentsline {subsection}{\numberline {4.3.1}Example: Shamir Secret Sharing}{56}}
\newlabel{shamir}{{4.3.1}{56}}
\@writefile{toc}{\contentsline {section}{\numberline {4.4}Security \& Universal Composability}{58}}
\newlabel{uc}{{4.4}{58}}
\@writefile{toc}{\contentsline {subsection}{\numberline {4.4.1}Simulation}{58}}
\newlabel{mpcsimulation}{{4.4.1}{58}}
\@writefile{toc}{\contentsline {subsection}{\numberline {4.4.2}Entities: Players, Adversaries and Environments}{59}}
\newlabel{Entities}{{4.4.2}{59}}
\@writefile{toc}{\contentsline {subsection}{\numberline {4.4.3}Real World}{63}}
\@writefile{toc}{\contentsline {subsection}{\numberline {4.4.4}Ideal World}{63}}
\@writefile{toc}{\contentsline {subsection}{\numberline {4.4.5}Hybrid World}{64}}
\@writefile{toc}{\contentsline {subsection}{\numberline {4.4.6}Security}{64}}
\newlabel{ucsec}{{4.4.6}{64}}
\@writefile{toc}{\contentsline {subsection}{\numberline {4.4.7}Feasibility Results}{67}}
\newlabel{mpcfeas}{{4.4.7}{67}}
\@writefile{toc}{\contentsline {section}{\numberline {4.5}Arithmetic Black Box}{68}}
\newlabel{abb}{{4.5}{68}}
\@writefile{toc}{\contentsline {subsection}{\numberline {4.5.1}$F_{ABB}$}{69}}
\newlabel{fabb}{{4.5.1}{69}}
\@writefile{toc}{\contentsline {subsubsection}{Notation}{71}}
\@writefile{toc}{\contentsline {subsection}{\numberline {4.5.2}$F_{ABB + RAM}$}{72}}
\newlabel{fabbram}{{4.5.2}{72}}
\@writefile{lof}{\contentsline {figure}{\numberline {4.1}{\ignorespaces The ideal functionality $F_{ABB+RAM}$ when interacting with $M$ parties, depicted as the relevant ports quantifying over $i \in \{2,...,M\}$. The special player $P_1$ orders the ideal functionality to read or write from the underlying $D$. Notice that exactly the accessed addresses and the nature of the operation performed then leaks from the ideal functionality. An adversary may stop any computation from executing. Further, the corruption structure of the ideal functionality allows him to obtain the view of any party interacting with the ideal functionality, and even to choose all further actions for the corrupted party. When we define $F_{ABB+RAM}$ in its strongest sence with regards to security, input from such corrupted parties will be ignored. Still, an adversary may observe exactly the addresses read and written to and from $D$. It is then the task of the protocol the players implement to let the revealed values carry no information about the actual logical address accessed, in turn leaving any two access patterns of the same length indistinguishable, thus effectively implementing an ORAM using $F_{ABB+RAM}$ as a resource. }}{74}}
\newlabel{fig:fabbramideal}{{4.1}{74}}
\@writefile{toc}{\contentsline {subsection}{\numberline {4.5.3}Environment Class $Env_{\text  {Init $P_1$}}$}{75}}
\newlabel{EnvP1}{{4.5.3}{75}}
\@writefile{toc}{\contentsline {section}{\numberline {4.6}Metrics for MPC}{76}}
\newlabel{mpcmetrics}{{4.6}{76}}
\@writefile{toc}{\contentsline {subsection}{\numberline {4.6.1}Computation and Circuit Complexity}{76}}
\@writefile{toc}{\contentsline {subsection}{\numberline {4.6.2}Round Complexity}{77}}
\@writefile{toc}{\contentsline {subsection}{\numberline {4.6.3}Communication Complexity}{77}}
\@writefile{toc}{\contentsline {subsection}{\numberline {4.6.4}Storage Complexity}{77}}
\@writefile{toc}{\contentsline {subsection}{\numberline {4.6.5}Black Box Complexity}{77}}
\@writefile{toc}{\contentsline {section}{\numberline {4.7}Regarding Secure Two-Party Computation}{78}}
\newlabel{Twopartyseccomp}{{4.7}{78}}
\@writefile{toc}{\contentsline {section}{\numberline {4.8}Example Schemes}{79}}
\newlabel{exampleschemes}{{4.8}{79}}
\@writefile{toc}{\contentsline {subsection}{\numberline {4.8.1}BeDOZA}{79}}
\@writefile{toc}{\contentsline {subsection}{\numberline {4.8.2}Garbled Circuits}{79}}
\@writefile{toc}{\contentsline {subsection}{\numberline {4.8.3}MPC on Binary Circuits}{80}}
\@writefile{toc}{\contentsline {chapter}{\numberline {5}Primitives for ORAM in MPC}{83}}
\@writefile{lof}{\addvspace {10\p@ }}
\@writefile{lot}{\addvspace {10\p@ }}
\newlabel{chap:5}{{5}{83}}
\@writefile{toc}{\contentsline {section}{\numberline {5.1}Intuition and Motivation}{83}}
\newlabel{oraminmpcintu}{{5.1}{83}}
\@writefile{toc}{\contentsline {section}{\numberline {5.2}Enabling Efficient MPC of RAM programs}{84}}
\newlabel{MPConRAM}{{5.2}{84}}
\@writefile{toc}{\contentsline {subsection}{\numberline {5.2.1}The Ostrovsky-Shoup Compiler}{84}}
\newlabel{ostrovskyshoup}{{5.2.1}{84}}
\@writefile{toc}{\contentsline {subsubsection}{The Compiler}{86}}
\@writefile{toc}{\contentsline {subsection}{\numberline {5.2.2}The Client-Server Setting}{87}}
\newlabel{seccompshareclient}{{5.2.2}{87}}
\newlabel{theoremtest}{{5}{87}}
\@writefile{lof}{\contentsline {figure}{\numberline {5.1}{\ignorespaces An illustration of the composition of each instruction $I$ being computed using generic MPC where the shared state of the parties and their variables are input. Each instruction can then be translated into accesses into the ORAM. The result of the ORAM is then secret shared into the state of the secure computation of the RAM program.}}{90}}
\newlabel{fig:ramsecurecomp}{{5.1}{90}}
\@writefile{toc}{\contentsline {subsection}{\numberline {5.2.3}Secret Sharing Everything}{91}}
\newlabel{seccompshareeverything}{{5.2.3}{91}}
\@writefile{toc}{\contentsline {section}{\numberline {5.3}$F_{ORAM}$}{92}}
\newlabel{iforam}{{5.3}{92}}
\@writefile{toc}{\contentsline {section}{\numberline {5.4}Metrics for ORAM in MPC}{94}}
\newlabel{metricsoraminmpc}{{5.4}{94}}
\@writefile{lof}{\contentsline {figure}{\numberline {5.2}{\ignorespaces An illustration of the ideal functionality for an ORAM in the setting of MPC. There are $M$ players interacting with the ideal functionality, denoted as the relevant ports with index $i \in \{2, .., M\}$. The special party $P_1$ instructs the ideal functionality to read or write specific entries in $D$. Notice that the only leakage is that an access is performed, as well as the size of the underlying $D$. The corruption structure of $F_{ORAM}$ dictates that an adversary may stop any action from being performed, as well as gain the view of any party interacting with $F_{ORAM}$ and further gaining arbitrary control of the party's interaction with $F_{ORAM}$. When we formulate $F_{ORAM}$ in its strongest sense with regards to security, input from such corrupted parties will be ignored. }}{95}}
\newlabel{fig:oramideal}{{5.2}{95}}
\@writefile{lof}{\contentsline {figure}{\numberline {5.3}{\ignorespaces $M$ players interacting with $F_{ABB+RAM}$. The special party $P_1$ being initialized with the logical addresses by $Z$ is depicted seperately from the remaining players, who are quantified by the ports with index $i \in \{2,...,M\}$. Notice that the adversary $A$ is depicted as being part of $Z$ as discussed in Section \ref  {Entities}.}}{96}}
\newlabel{fig:fabbramplusplayers}{{5.3}{96}}
\@writefile{lof}{\contentsline {figure}{\numberline {5.4}{\ignorespaces $S$ interacts with $F_{ORAM}$ and uses the leakage and influence to and from $F_{ORAM}$ in order to simulate the view of the corrupted parties in the hybrid execution in Figure \ref  {fig:fabbramplusplayers}. It can attempt simulation of corruptions through such leakage and influence, since $Z$ will order it to perform such corruptions through its ports connected to $S$. These are the same ports structurally as the players and $F_{ABB+RAM}$ expose to $Z$ in Figure \ref  {fig:fabbramplusplayers}. Notice how the players in this setting can be seen as part of $Z$. This is so since $Z$ chooses the players' input and output, and they only forward this input to $F_{ORAM}$. As such, we often abstract the players as being part of $Z$ in the ideal world execution, as depicted here.}}{96}}
\newlabel{fig:foramplussimulator}{{5.4}{96}}
\@writefile{toc}{\contentsline {section}{\numberline {5.5}Lower Bound Revisited, Again}{99}}
\newlabel{lowerboundorammpc}{{5.5}{99}}
\@writefile{toc}{\contentsline {section}{\numberline {5.6}Recap}{101}}
\@writefile{toc}{\contentsline {chapter}{\numberline {6}Secret Sharing the Entire ORAM}{103}}
\@writefile{lof}{\addvspace {10\p@ }}
\@writefile{lot}{\addvspace {10\p@ }}
\newlabel{secretshareoram}{{6}{103}}
\@writefile{toc}{\contentsline {section}{\numberline {6.1}Security Model}{104}}
\@writefile{toc}{\contentsline {section}{\numberline {6.2}Trivial Solution}{105}}
\newlabel{mpctrivoram}{{6.2}{105}}
\@writefile{toc}{\contentsline {subsubsection}{Security}{106}}
\newlabel{trivoramsecurity}{{6.2}{106}}
\@writefile{toc}{\contentsline {section}{\numberline {6.3}Example: Secret Sharing Path ORAM}{107}}
\@writefile{toc}{\contentsline {subsection}{\numberline {6.3.1}Position Map}{107}}
\newlabel{ss path oram pos map}{{6.3.1}{107}}
\@writefile{toc}{\contentsline {subsection}{\numberline {6.3.2}Indexing Into Position Map Memory Cells}{108}}
\@writefile{toc}{\contentsline {subsection}{\numberline {6.3.3}Multiple Field Elements per Memory Cell}{109}}
\@writefile{toc}{\contentsline {subsection}{\numberline {6.3.4}Multiple Leaf Mappings per Field Element}{109}}
\@writefile{toc}{\contentsline {subsection}{\numberline {6.3.5}Overall Position Map Access}{110}}
\newlabel{overallpos}{{6.3.5}{110}}
\@writefile{toc}{\contentsline {subsection}{\numberline {6.3.6}Eviction}{111}}
\newlabel{pathevictmpc}{{6.3.6}{111}}
\@writefile{toc}{\contentsline {subsection}{\numberline {6.3.7}The Path ORAM Construction}{112}}
\@writefile{toc}{\contentsline {subsubsection}{Storage}{112}}
\@writefile{toc}{\contentsline {subsubsection}{Access}{112}}
\@writefile{toc}{\contentsline {subsection}{\numberline {6.3.8}Security}{114}}
\newlabel{pathoraminmpcsec}{{6.3.8}{114}}
\@writefile{toc}{\contentsline {subsubsection}{Access patterns}{114}}
\@writefile{toc}{\contentsline {subsubsection}{Correctness}{115}}
\@writefile{toc}{\contentsline {subsubsection}{Simulation}{115}}
\@writefile{toc}{\contentsline {subsection}{\numberline {6.3.9}Client Side Circuit and Computation}{117}}
\newlabel{pathorammpccomplex}{{6.3.9}{117}}
\@writefile{toc}{\contentsline {subsection}{\numberline {6.3.10}Empirical Results}{118}}
\@writefile{toc}{\contentsline {section}{\numberline {6.4}Recap}{119}}
\@writefile{toc}{\contentsline {chapter}{\numberline {7}Secret Sharing the ORAM Client}{121}}
\@writefile{lof}{\addvspace {10\p@ }}
\@writefile{lot}{\addvspace {10\p@ }}
\newlabel{shareclientexample}{{7}{121}}
\@writefile{toc}{\contentsline {section}{\numberline {7.1}Example: Distributed ORAM}{121}}
\newlabel{2serveros}{{7.1}{121}}
\@writefile{toc}{\contentsline {subsection}{\numberline {7.1.1}The Distributed ORAM Construction}{122}}
\@writefile{toc}{\contentsline {subsubsection}{The Client's Access Protocol}{123}}
\newlabel{client_access_2server_in_mpc}{{7.1.1}{123}}
\@writefile{toc}{\contentsline {subsubsection}{Reshuffle}{125}}
\newlabel{2server_os_reshuffle}{{7.1.1}{125}}
\@writefile{toc}{\contentsline {subsection}{\numberline {7.1.2}Security}{125}}
\@writefile{toc}{\contentsline {subsubsection}{Passive Adversaries}{126}}
\@writefile{toc}{\contentsline {subsubsection}{Access}{127}}
\@writefile{toc}{\contentsline {subsubsection}{Reshuffle}{127}}
\@writefile{toc}{\contentsline {subsubsection}{Malicious Adversaries}{129}}
\@writefile{toc}{\contentsline {subsection}{\numberline {7.1.3}Practical Efficiency}{129}}
\newlabel{2serverpractical}{{7.1.3}{129}}
\@writefile{toc}{\contentsline {section}{\numberline {7.2}Secure Computation of PRFs}{131}}
\newlabel{sprf}{{7.2}{131}}
\@writefile{toc}{\contentsline {subsection}{\numberline {7.2.1}Practical Efficiency}{132}}
\@writefile{toc}{\contentsline {subsection}{\numberline {7.2.2}Shared Oblivious PRF}{133}}
\newlabel{soPRF}{{7.2.2}{133}}
\@writefile{toc}{\contentsline {subsubsection}{soPRF}{134}}
\@writefile{toc}{\contentsline {subsubsection}{Complexity}{135}}
\newlabel{2server_plus_soprf}{{7.2.2}{135}}
\@writefile{toc}{\contentsline {section}{\numberline {7.3}Avoiding PRFs}{136}}
\newlabel{avoidprf}{{7.3}{136}}
\@writefile{toc}{\contentsline {subsection}{\numberline {7.3.1}Replacing the Tagging PRF in Distributed ORAM}{137}}
\newlabel{2serverreplacetaggingprf}{{7.3.1}{137}}
\@writefile{toc}{\contentsline {section}{\numberline {7.4}Leveraging Encryption \& Decryption Inside Secure Computation}{139}}
\newlabel{avoidencryption}{{7.4}{139}}
\@writefile{toc}{\contentsline {subsection}{\numberline {7.4.1}Avoiding Encryption in the Secure Computation of Distributed ORAM}{140}}
\newlabel{avoidenc2server}{{7.4.1}{140}}
\@writefile{toc}{\contentsline {section}{\numberline {7.5}Recap}{141}}
\@writefile{toc}{\contentsline {chapter}{\numberline {8}Tailoring ORAM to MPC}{145}}
\@writefile{lof}{\addvspace {10\p@ }}
\@writefile{lot}{\addvspace {10\p@ }}
\newlabel{tailortompc}{{8}{145}}
\@writefile{toc}{\contentsline {section}{\numberline {8.1}Altering Tree-Based ORAM to MPC - SCORAM and Circuit ORAM}{147}}
\newlabel{AlterTreeORAM}{{8.1}{147}}
\@writefile{toc}{\contentsline {subsection}{\numberline {8.1.1}SCORAM - Avoiding Complex Eviction}{148}}
\@writefile{toc}{\contentsline {subsubsection}{SCORAM Eviction}{148}}
\@writefile{toc}{\contentsline {subsubsection}{Parameter Optimization}{149}}
\@writefile{toc}{\contentsline {subsection}{\numberline {8.1.2}Circuit ORAM - Obtaining Bounds}{150}}
\@writefile{toc}{\contentsline {subsubsection}{Single Pass Eviction }{150}}
\@writefile{toc}{\contentsline {subsubsection}{Parameterization and Bounds}{151}}
\@writefile{toc}{\contentsline {subsubsection}{Practical Efficiency}{151}}
\@writefile{toc}{\contentsline {section}{\numberline {8.2}Assuming an Honest Majority - 3PORAM}{152}}
\@writefile{toc}{\contentsline {subsection}{\numberline {8.2.1}Tree-Based ORAM Modifications}{153}}
\@writefile{toc}{\contentsline {subsection}{\numberline {8.2.2}Practical Efficiency}{154}}
\@writefile{toc}{\contentsline {chapter}{\numberline {9}Discussion, Conclusion and Future Work}{157}}
\@writefile{lof}{\addvspace {10\p@ }}
\@writefile{lot}{\addvspace {10\p@ }}
\@writefile{toc}{\contentsline {section}{\numberline {9.1}Discussion}{157}}
\@writefile{toc}{\contentsline {section}{\numberline {9.2}Conclusion}{162}}
\@writefile{toc}{\contentsline {section}{\numberline {9.3}Future work}{163}}
\@writefile{toc}{\contentsline {chapter}{Primary Bibliography}{164}}
\@writefile{toc}{\contentsline {chapter}{Appendices}{171}}
\@writefile{toc}{\contentsline {chapter}{\numberline {A}Protocols}{173}}
\@writefile{lof}{\addvspace {10\p@ }}
\@writefile{lot}{\addvspace {10\p@ }}
\@writefile{toc}{\contentsline {section}{\numberline {A.1}Path ORAM}{173}}
\newlabel{pathoramappendix}{{A.1}{173}}
\@writefile{toc}{\contentsline {subsection}{\numberline {A.1.1}Access Protocol}{173}}
\@writefile{loa}{\contentsline {algorithm}{\numberline {1}{\ignorespaces \textbf  {Access(op, v, data*)}}}{173}}
\@writefile{toc}{\contentsline {section}{\numberline {A.2}Secret Sharing Path ORAM}{173}}
\newlabel{trivoblarray}{{A.2}{173}}
\@writefile{toc}{\contentsline {subsection}{\numberline {A.2.1}Building Blocks}{174}}
\newlabel{buildingblocks}{{A.2.1}{174}}
\@writefile{toc}{\contentsline {subsection}{\numberline {A.2.2}Trivial Oblivious Access}{175}}
\@writefile{loa}{\contentsline {algorithm}{\numberline {2}{\ignorespaces $([u_0],...,[u_{2^l-1}]) \leftarrow \textbf  {Demux}([a_0],...,[a_ {l-1}]) $}}{175}}
\@writefile{loa}{\contentsline {algorithm}{\numberline {3}{\ignorespaces $([d],[e]) \leftarrow \textbf  {Access}([v],[d'],[e'],[w]) $}}{175}}
\@writefile{toc}{\contentsline {subsection}{\numberline {A.2.3}Position Map Oblivious Access}{175}}
\@writefile{loa}{\contentsline {algorithm}{\numberline {4}{\ignorespaces $([f],[X^{m}]) \leftarrow \textbf  {Mod2m}([a],[m],l) $}}{176}}
\@writefile{loa}{\contentsline {algorithm}{\numberline {5}{\ignorespaces $([f],[g]) \leftarrow \textbf  {Replace}([a],[m],[b],l) $}}{176}}
\@writefile{toc}{\contentsline {subsection}{\numberline {A.2.4}Path ORAM}{176}}
\@writefile{loa}{\contentsline {algorithm}{\numberline {6}{\ignorespaces $([d],[e]) \leftarrow \textbf  {ReadAndRemove}([v]) $}}{176}}
\@writefile{loa}{\contentsline {algorithm}{\numberline {7}{\ignorespaces $ \textbf  {Add}([d],[v],[e])$}}{177}}
\@writefile{toc}{\contentsline {subsection}{\numberline {A.2.5}Eviction}{177}}
\@writefile{loa}{\contentsline {algorithm}{\numberline {8}{\ignorespaces $([u_0],...,[u_{L-1}]) \leftarrow \textbf  {LCA}([a], b, [e]) $}}{177}}
\@writefile{loa}{\contentsline {algorithm}{\numberline {9}{\ignorespaces $([L_E],[b]) \leftarrow \textbf  {ComputePos}(E, l, z) $}}{178}}
\@writefile{loa}{\contentsline {algorithm}{\numberline {10}{\ignorespaces $\textbf  {Evict}(E_0,...,E_{n-1}, z) $}}{179}}
\@writefile{toc}{\contentsline {section}{\numberline {A.3}Multiplicative Resharing}{179}}
\newlabel{appendix:multreshare}{{A.3}{179}}
\@writefile{toc}{\contentsline {section}{\numberline {A.4}SCORAM and Circuit ORAM}{180}}
\@writefile{toc}{\contentsline {subsection}{\numberline {A.4.1}SCORAM Eviction}{180}}
\newlabel{appendix:scoram}{{A.4.1}{180}}
\@writefile{loa}{\contentsline {algorithm}{\numberline {11}{\ignorespaces \textbf  {flush()}}}{180}}
\@writefile{toc}{\contentsline {subsection}{\numberline {A.4.2}Circuit ORAM Eviction}{180}}
\newlabel{appendix:circuitoram}{{A.4.2}{180}}
\newlabel{appendix:preparedeepest}{{A.4.2}{180}}
\newlabel{appendix:preparetarget}{{A.4.2}{180}}
\newlabel{appendix:evictoncefast}{{A.4.2}{180}}
\@writefile{loa}{\contentsline {algorithm}{\numberline {12}{\ignorespaces \textbf  {PrepareDeepest(path)}}}{181}}
\@writefile{loa}{\contentsline {algorithm}{\numberline {13}{\ignorespaces \textbf  {PrepareTarget(path)}}}{181}}
\@writefile{loa}{\contentsline {algorithm}{\numberline {14}{\ignorespaces \textbf  {EvictOnceFast(path)}}}{181}}
