\select@language {american}
\addvspace {10\p@ }
\addvspace {10\p@ }
\addvspace {10\p@ }
\addvspace {10\p@ }
\contentsline {figure}{\numberline {4.1}{\ignorespaces The ideal functionality $F_{ABB+RAM}$ when interacting with $M$ parties, depicted as the relevant ports quantifying over $i \in \{2,...,M\}$. The special player $P_1$ orders the ideal functionality to read or write from the underlying $D$. Notice that exactly the accessed addresses and the nature of the operation performed then leaks from the ideal functionality. An adversary may stop any computation from executing. Further, the corruption structure of the ideal functionality allows him to obtain the view of any party interacting with the ideal functionality, and even to choose all further actions for the corrupted party. When we define $F_{ABB+RAM}$ in its strongest sence with regards to security, input from such corrupted parties will be ignored. Still, an adversary may observe exactly the addresses read and written to and from $D$. It is then the task of the protocol the players implement to let the revealed values carry no information about the actual logical address accessed, in turn leaving any two access patterns of the same length indistinguishable, thus effectively implementing an ORAM using $F_{ABB+RAM}$ as a resource. }}{74}
\addvspace {10\p@ }
\contentsline {figure}{\numberline {5.1}{\ignorespaces An illustration of the composition of each instruction $I$ being computed using generic MPC where the shared state of the parties and their variables are input. Each instruction can then be translated into accesses into the ORAM. The result of the ORAM is then secret shared into the state of the secure computation of the RAM program.}}{90}
\contentsline {figure}{\numberline {5.2}{\ignorespaces An illustration of the ideal functionality for an ORAM in the setting of MPC. There are $M$ players interacting with the ideal functionality, denoted as the relevant ports with index $i \in \{2, .., M\}$. The special party $P_1$ instructs the ideal functionality to read or write specific entries in $D$. Notice that the only leakage is that an access is performed, as well as the size of the underlying $D$. The corruption structure of $F_{ORAM}$ dictates that an adversary may stop any action from being performed, as well as gain the view of any party interacting with $F_{ORAM}$ and further gaining arbitrary control of the party's interaction with $F_{ORAM}$. When we formulate $F_{ORAM}$ in its strongest sense with regards to security, input from such corrupted parties will be ignored. }}{95}
\contentsline {figure}{\numberline {5.3}{\ignorespaces $M$ players interacting with $F_{ABB+RAM}$. The special party $P_1$ being initialized with the logical addresses by $Z$ is depicted seperately from the remaining players, who are quantified by the ports with index $i \in \{2,...,M\}$. Notice that the adversary $A$ is depicted as being part of $Z$ as discussed in Section \ref {Entities}.}}{96}
\contentsline {figure}{\numberline {5.4}{\ignorespaces $S$ interacts with $F_{ORAM}$ and uses the leakage and influence to and from $F_{ORAM}$ in order to simulate the view of the corrupted parties in the hybrid execution in Figure \ref {fig:fabbramplusplayers}. It can attempt simulation of corruptions through such leakage and influence, since $Z$ will order it to perform such corruptions through its ports connected to $S$. These are the same ports structurally as the players and $F_{ABB+RAM}$ expose to $Z$ in Figure \ref {fig:fabbramplusplayers}. Notice how the players in this setting can be seen as part of $Z$. This is so since $Z$ chooses the players' input and output, and they only forward this input to $F_{ORAM}$. As such, we often abstract the players as being part of $Z$ in the ideal world execution, as depicted here.}}{96}
\addvspace {10\p@ }
\addvspace {10\p@ }
\addvspace {10\p@ }
\addvspace {10\p@ }
\addvspace {10\p@ }
