\relax 
\providecommand\hyper@newdestlabel[2]{}
\providecommand\HyperFirstAtBeginDocument{\AtBeginDocument}
\HyperFirstAtBeginDocument{\ifx\hyper@anchor\@undefined
\global\let\oldcontentsline\contentsline
\gdef\contentsline#1#2#3#4{\oldcontentsline{#1}{#2}{#3}}
\global\let\oldnewlabel\newlabel
\gdef\newlabel#1#2{\newlabelxx{#1}#2}
\gdef\newlabelxx#1#2#3#4#5#6{\oldnewlabel{#1}{{#2}{#3}}}
\AtEndDocument{\ifx\hyper@anchor\@undefined
\let\contentsline\oldcontentsline
\let\newlabel\oldnewlabel
\fi}
\fi}
\global\let\hyper@last\relax 
\gdef\HyperFirstAtBeginDocument#1{#1}
\providecommand\HyField@AuxAddToFields[1]{}
\providecommand\HyField@AuxAddToCoFields[2]{}
\@writefile{toc}{\beamer@endinputifotherversion {3.24pt}}
\@writefile{nav}{\beamer@endinputifotherversion {3.24pt}}
\@writefile{nav}{\headcommand {\slideentry {0}{0}{1}{1/1}{}{0}}}
\@writefile{nav}{\headcommand {\beamer@framepages {1}{1}}}
\@writefile{nav}{\headcommand {\slideentry {0}{0}{2}{2/13}{}{0}}}
\@writefile{nav}{\headcommand {\beamer@framepages {2}{13}}}
\@writefile{nav}{\headcommand {\slideentry {0}{0}{3}{14/21}{}{0}}}
\@writefile{nav}{\headcommand {\beamer@framepages {14}{21}}}
\@writefile{nav}{\headcommand {\slideentry {0}{0}{4}{22/28}{}{0}}}
\@writefile{nav}{\headcommand {\beamer@framepages {22}{28}}}
\@writefile{nav}{\headcommand {\slideentry {0}{0}{5}{29/38}{}{0}}}
\@writefile{nav}{\headcommand {\beamer@framepages {29}{38}}}
\@writefile{nav}{\headcommand {\slideentry {0}{0}{6}{39/42}{}{0}}}
\@writefile{nav}{\headcommand {\beamer@framepages {39}{42}}}
\@writefile{nav}{\headcommand {\slideentry {0}{0}{7}{43/54}{}{0}}}
\@writefile{nav}{\headcommand {\beamer@framepages {43}{54}}}
\@writefile{nav}{\headcommand {\slideentry {0}{0}{8}{55/64}{}{0}}}
\@writefile{nav}{\headcommand {\beamer@framepages {55}{64}}}
\@writefile{nav}{\headcommand {\slideentry {0}{0}{9}{65/76}{}{0}}}
\@writefile{nav}{\headcommand {\beamer@framepages {65}{76}}}
\@writefile{nav}{\headcommand {\slideentry {0}{0}{10}{77/82}{}{0}}}
\@writefile{nav}{\headcommand {\beamer@framepages {77}{82}}}
\@writefile{nav}{\headcommand {\slideentry {0}{0}{11}{83/91}{}{0}}}
\@writefile{nav}{\headcommand {\beamer@framepages {83}{91}}}
\@writefile{nav}{\headcommand {\slideentry {0}{0}{12}{92/100}{}{0}}}
\@writefile{nav}{\headcommand {\beamer@framepages {92}{100}}}
\@writefile{nav}{\headcommand {\slideentry {0}{0}{13}{101/102}{}{0}}}
\@writefile{nav}{\headcommand {\beamer@framepages {101}{102}}}
\@writefile{nav}{\headcommand {\slideentry {0}{0}{14}{103/108}{}{0}}}
\@writefile{nav}{\headcommand {\beamer@framepages {103}{108}}}
\@writefile{nav}{\headcommand {\slideentry {0}{0}{15}{109/118}{}{0}}}
\@writefile{nav}{\headcommand {\beamer@framepages {109}{118}}}
\@writefile{nav}{\headcommand {\beamer@partpages {1}{118}}}
\@writefile{nav}{\headcommand {\beamer@subsectionpages {1}{118}}}
\@writefile{nav}{\headcommand {\beamer@sectionpages {1}{118}}}
\@writefile{nav}{\headcommand {\beamer@documentpages {118}}}
\@writefile{nav}{\headcommand {\def \inserttotalframenumber {15}}}
